<?xml version="1.0" encoding="utf-8"?>
<!-- Generator: Adobe Illustrator 22.1.0, SVG Export Plug-In . SVG Version: 6.00 Build 0)  -->
<svg version="1.1" id="Layer_1" xmlns="http://www.w3.org/2000/svg" xmlns:xlink="http://www.w3.org/1999/xlink" x="0px" y="0px"
	 viewBox="0 0 32 18" style="enable-background:new 0 0 32 18;" xml:space="preserve">
<path id="Shape" d="M17.6,17.8c0,0,0.6-0.1,0.9-0.4c0.3-0.3,0.3-0.8,0.3-0.8s0-2.5,1.2-2.9c1.2-0.4,2.7,2.4,4.3,3.5
	c1.2,0.8,2.1,0.6,2.1,0.6l4.3-0.1c0,0,2.2-0.1,1.2-1.9c-0.1-0.1-0.6-1.3-3.2-3.6c-2.7-2.4-2.3-2,0.9-6.3c2-2.6,2.8-4.1,2.5-4.8
	c-0.2-0.6-1.7-0.5-1.7-0.5l-4.8,0c0,0-0.4,0-0.6,0.1c-0.3,0.2-0.4,0.5-0.4,0.5s-0.8,2-1.8,3.7c-2.1,3.6-3,3.8-3.3,3.5
	c-0.8-0.5-0.6-2.1-0.6-3.2c0-3.5,0.5-4.9-1-5.3C17.1,0.1,16.7,0,15.4,0c-1.7,0-3.2,0-4,0.4c-0.5,0.3-1,0.8-0.7,0.9
	c0.3,0,1,0.2,1.4,0.7c0.5,0.7,0.5,2.1,0.5,2.1s0.3,4.1-0.7,4.6c-0.6,0.3-1.5-0.4-3.4-3.6c-1-1.7-1.7-3.5-1.7-3.5S6.6,1.3,6.4,1.1
	C6,0.9,5.6,0.8,5.6,0.8L1,0.8c0,0-0.7,0-0.9,0.3c-0.2,0.3,0,0.8,0,0.8s3.6,8.2,7.6,12.4c3.7,3.8,7.9,3.5,7.9,3.5H17.6z"/>
</svg>
