{
	"ICONS": {
		"arrow-down": {
			"data": "<svg xmlns=\"http://www.w3.org/2000/svg\" viewBox=\"0 0 48.8 27.7\"><path d=\"M47.8 5.6c.6-.6 1-1.4 1-2.3 0-.8-.3-1.7-1-2.3-1.3-1.3-3.4-1.3-4.6 0L24.4 19.8 5.6 1C4.3-.3 2.2-.3 1 1-.3 2.3-.3 4.4 1 5.6l21.1 21.1c.6.6 1.4 1 2.3 1s1.7-.3 2.3-1L47.8 5.6z\"/></svg>",
			"info": {}
		},
		"arrow-left": {
			"data": "<svg xmlns=\"http://www.w3.org/2000/svg\" viewBox=\"0 0 27.7 48.8\"><path d=\"M22.1 47.8c.6.6 1.4 1 2.3 1 .8 0 1.7-.3 2.3-1 1.3-1.3 1.3-3.4 0-4.6L7.9 24.4 26.7 5.6C28 4.3 28 2.2 26.7 1c-1.3-1.3-3.4-1.3-4.6 0L1 22.1c-.6.6-1 1.4-1 2.3s.3 1.7 1 2.3l21.1 21.1z\"/></svg>",
			"info": {}
		},
		"arrow-right": {
			"data": "<svg xmlns=\"http://www.w3.org/2000/svg\" viewBox=\"0 0 27.7 48.8\"><path d=\"M5.6 1C5 .4 4.2 0 3.3 0 2.5 0 1.6.3 1 1-.3 2.3-.3 4.4 1 5.6l18.8 18.8L1 43.2c-1.3 1.3-1.3 3.4 0 4.6 1.3 1.3 3.4 1.3 4.6 0l21.1-21.1c.6-.6 1-1.4 1-2.3s-.3-1.7-1-2.3L5.6 1z\"/></svg>",
			"info": {}
		},
		"arrow-up": {
			"data": "<svg xmlns=\"http://www.w3.org/2000/svg\" viewBox=\"0 0 48.8 27.7\"><path d=\"M1 22.1c-.6.6-1 1.4-1 2.3 0 .8.3 1.7 1 2.3 1.3 1.3 3.4 1.3 4.6 0L24.4 7.9l18.8 18.8c1.3 1.3 3.4 1.3 4.6 0 1.3-1.3 1.3-3.4 0-4.6L26.7 1c-.6-.6-1.4-1-2.3-1s-1.7.3-2.3 1L1 22.1z\"/></svg>",
			"info": {}
		},
		"facebook": {
			"data": "<svg xmlns=\"http://www.w3.org/2000/svg\" viewBox=\"0 0 15.2 32.6\"><path d=\"M10.1 32.6V16.3h4.5l.6-5.6h-5.1V7.9c0-1.5.1-2.3 2.2-2.3h2.8V0h-4.5C5.3 0 3.4 2.7 3.4 7.3v3.4H0v5.6h3.4v16.3h6.7z\"/></svg>",
			"info": {}
		},
		"instagram": {
			"data": "<svg id=\"Layer_1\" xmlns=\"http://www.w3.org/2000/svg\" viewBox=\"0 0 32 32\"><style>.st0{fill:#fff}</style><path id=\"Path\" d=\"M16 0c-4.3 0-4.9 0-6.6.1-1.7.1-2.9.3-3.9.7-1.1.4-1.9 1-2.8 1.8-.9 1-1.5 1.9-1.9 2.9-.4 1-.7 2.2-.7 3.9C0 11.1 0 11.7 0 16s0 4.9.1 6.6c.1 1.7.3 2.9.7 3.9.4 1.1 1 1.9 1.8 2.8.9.9 1.8 1.4 2.8 1.8 1 .4 2.2.7 3.9.7 1.8.2 2.4.2 6.7.2 4.3 0 4.9 0 6.6-.1 1.7-.1 2.9-.3 3.9-.7 1.1-.4 1.9-1 2.8-1.8.9-.9 1.4-1.8 1.8-2.8.4-1 .7-2.2.7-3.9.2-1.8.2-2.4.2-6.7s0-4.9-.1-6.6c-.1-1.7-.4-2.9-.7-3.9-.4-1.1-1-1.9-1.8-2.8-.9-.9-1.8-1.4-2.8-1.8-1-.4-2.2-.7-3.9-.7C20.9 0 20.3 0 16 0z\"/><path id=\"Path_1_\" class=\"st0\" d=\"M14.6 2.9H16c4.3 0 4.8 0 6.5.1 1.6.1 2.4.3 3 .6.7.3 1.3.6 1.8 1.2.6.6.9 1.1 1.2 1.8.2.5.5 1.4.5 2.9.1 1.7.1 2.2.1 6.5s0 4.8-.1 6.5c-.1 1.6-.3 2.4-.6 3-.3.7-.6 1.3-1.2 1.8-.6.6-1.1.9-1.8 1.2-.6.2-1.4.5-3 .6-1.7.1-2.2.1-6.5.1s-4.8 0-6.5-.1c-1.6-.1-2.4-.3-3-.6-.7-.3-1.3-.6-1.8-1.2-.6-.6-.9-1.1-1.2-1.8-.1-.6-.4-1.5-.4-3-.1-1.7-.1-2.2-.1-6.5s0-4.8.1-6.5c0-1.5.3-2.4.5-2.9.3-.7.6-1.3 1.2-1.8s1.1-.9 1.8-1.2c.6-.3 1.5-.6 3-.6 1.5-.1 2.1-.1 5.1-.1z\"/><path id=\"Shape\" d=\"M24.5 5.5c-1.1 0-1.9.9-1.9 1.9 0 1.1.9 1.9 1.9 1.9s1.9-.9 1.9-1.9-.8-1.9-1.9-1.9zM16 7.8c-4.5 0-8.2 3.7-8.2 8.2s3.7 8.2 8.2 8.2 8.2-3.7 8.2-8.2-3.7-8.2-8.2-8.2zm0 2.9c2.9 0 5.3 2.4 5.3 5.3s-2.4 5.3-5.3 5.3-5.3-2.4-5.3-5.3 2.4-5.3 5.3-5.3z\"/></svg>",
			"info": {}
		},
		"point": {
			"data": "<svg id=\"Слой_1\" xmlns=\"http://www.w3.org/2000/svg\" viewBox=\"0 0 360 512\"><style>.st0{fill:none}</style><path class=\"st0\" d=\"M0 0h360v512H0z\"/><path d=\"M180 0C80.7 0 0 80.7 0 180c0 33.5 9.3 66.3 26.9 94.7L169.8 505c2.7 4.4 7.6 7.1 12.7 7.1h.1c5.2 0 10.1-2.8 12.8-7.3l139.2-232.5c16.6-27.8 25.4-59.7 25.4-92.2C360 80.7 279.3 0 180 0m128.9 256.8L182.3 468.2 52.4 258.8c-14.6-23.6-22.6-50.9-22.6-78.8C29.8 97.3 97.3 29.8 180 29.8S330.1 97.3 330.1 180c0 27.1-7.4 53.7-21.2 76.8\"/><path class=\"st0\" d=\"M0 0h360v512H0z\"/><path d=\"M180 90c-49.6 0-90 40.4-90 90 0 49.3 39.7 90 90 90 50.9 0 90-41.2 90-90 0-49.6-40.4-90-90-90m0 150.2c-33.3 0-60.2-27-60.2-60.2 0-33.1 27.1-60.2 60.2-60.2s60.1 27.1 60.1 60.2c0 32.7-26.3 60.2-60.1 60.2\"/></svg>",
			"info": {}
		},
		"user": {
			"data": "<svg xmlns=\"http://www.w3.org/2000/svg\" viewBox=\"0 0 26.4 26.4\"><path d=\"M13.2 26.4C5.9 26.4 0 20.5 0 13.2S5.9 0 13.2 0s13.2 5.9 13.2 13.2-5.9 13.2-13.2 13.2m0-25.6C6.4.8.8 6.4.8 13.2s5.6 12.4 12.4 12.4S25.6 20 25.6 13.2C25.6 6.4 20 .8 13.2.8\"/><path d=\"M13.2 26.4c-2.7 0-5.4-.8-7.6-2.4-.1-.1-.2-.2-.2-.4 0-.1.1-.3.3-.3C9 22 9.5 21 9.5 19.1c0-.5-.1-.7-.3-1-.3-.4-.6-.9-.9-2.4 0-.2-.1-.2-.3-.3-.5-.2-.9-.6-1-2.1 0-.7.3-1.2.5-1.4 0-.3-.1-.7-.2-1.2-.4-2.1-.4-4.8 2.7-6.1 2.7-1.1 4.9-.5 5.6.2.5 0 1.7.1 2.6 1.2 1.3 1.6.9 5.1.8 6 .2.2.5.6.5 1.3-.1 1.6-.6 1.9-1 2.1-.2.1-.2.1-.3.3-.3 1.4-.6 2-.9 2.4-.2.3-.3.5-.3 1 0 1.9.5 2.9 3.9 4.1l.3.3c0 .1 0 .3-.2.4-2.4 1.7-5.1 2.5-7.8 2.5m-6.5-2.7c2 1.2 4.2 1.9 6.5 1.9s4.6-.6 6.5-1.9c-2.8-1.1-3.7-2.3-3.7-4.6 0-.8.2-1.1.5-1.4.2-.4.5-.8.8-2 .1-.6.5-.8.7-.9.2-.1.5-.2.6-1.4 0-.6-.3-.8-.3-.8-.1-.1-.2-.3-.2-.4.2-1.1.5-4.4-.5-5.6-.7-.8-1.9-.9-2.1-.9h-.1c-.1 0-.3-.1-.3-.2-.2-.4-2.1-1.1-4.7-.1s-2.6 3.3-2.3 5.3c.1.8.2 1.4.2 1.4 0 .2-.1.4-.2.4 0 0-.3.2-.3.8.1 1.2.3 1.3.6 1.4.2.2.6.3.7.9.2 1.2.5 1.7.8 2 .2.3.5.7.5 1.4-.1 2.4-1 3.6-3.7 4.7\"/></svg>",
			"info": {}
		},
		"vk": {
			"data": "<svg xmlns=\"http://www.w3.org/2000/svg\" viewBox=\"0 0 32 18\"><path d=\"M17.6 17.8s.6-.1.9-.4c.3-.3.3-.8.3-.8s0-2.5 1.2-2.9c1.2-.4 2.7 2.4 4.3 3.5 1.2.8 2.1.6 2.1.6l4.3-.1s2.2-.1 1.2-1.9c-.1-.1-.6-1.3-3.2-3.6-2.7-2.4-2.3-2 .9-6.3 2-2.6 2.8-4.1 2.5-4.8-.2-.6-1.7-.5-1.7-.5h-4.8s-.4 0-.6.1c-.3.2-.4.5-.4.5s-.8 2-1.8 3.7c-2.1 3.6-3 3.8-3.3 3.5-.8-.5-.6-2.1-.6-3.2 0-3.5.5-4.9-1-5.3-.8.2-1.2.1-2.5.1-1.7 0-3.2 0-4 .4-.5.3-1 .8-.7.9.3 0 1 .2 1.4.7.5.7.5 2.1.5 2.1s.3 4.1-.7 4.6c-.6.3-1.5-.4-3.4-3.6-1-1.7-1.7-3.5-1.7-3.5s-.2-.3-.4-.5C6 .9 5.6.8 5.6.8H1s-.7 0-.9.3c-.2.3 0 .8 0 .8s3.6 8.2 7.6 12.4c3.7 3.8 7.9 3.5 7.9 3.5h2z\"/></svg>",
			"info": {}
		},
		"youtube": {
			"data": "<svg id=\"Layer_1\" xmlns=\"http://www.w3.org/2000/svg\" viewBox=\"0 0 32 23\"><style>.st0{fill:#fff}</style><title>Youtube_Color</title><path d=\"M31.7 5s-.3-2.3-1.3-3.2C29.2.5 27.8.5 27.2.4 22.7 0 16 0 16 0S9.3 0 4.8.3c-.6.1-2 .1-3.2 1.4C.6 2.7.3 5 .3 5S0 7.6 0 10.3v2.5c0 2.6.3 5.2.3 5.2s.3 2.3 1.3 3.2c1.2 1.3 2.8 1.3 3.5 1.4 2.6.3 10.9.4 10.9.4s6.7 0 11.2-.3c.6-.1 2-.1 3.2-1.4 1-1 1.3-3.2 1.3-3.2s.3-2.6.3-5.3v-2.5c0-2.7-.3-5.3-.3-5.3z\"/><path id=\"Path\" class=\"st0\" d=\"M12.7 15.7V6.6l8.6 4.6z\"/></svg>",
			"info": {}
		}
	},
	"LINKS": {
		"home": "./",
		"addresses": "school-addresses.html",
		"adult": "adult-groups.html",
		"childrens_2_6": "childrens-2-6.html",
		"childrens_7_12": "childrens-7-12.html",
		"childrens_7_13": "childrens-7-13.html",
		"international_exams": "international-exams.html",
		"individual_training": "individual-training.html",
		"exit_training": "exit-training.html",
		"chinese_lang": "chinese-language.html",
		"germany_lang": "germany-language.html",
		"france_lang": "france-language.html",
		"oge": "oge.html",
		"dashboard": "dashboard.html",
		"partners": "partners.html",
		"foreign_languages": "foreign-languages.html",
		"programs": "programs.html",
		"events": "events.html",
		"news": "news.html",
		"article": "article.html",
		"camp": "article-camp.html",
		"event": "article-event.html",
		"teachers_list": "teachers-list.html",
		"teachers": "teachers.html",
		"teacher": "teacher.html",
		"summer_camps": "summer-camps.html",
		"reviews": "reviews.html",
		"ui": "ui.html"
	},
	"PAGES": [
		{
			"name": "Главная страница",
			"href": "index.html"
		},
		{
			"name": "Адреса школ",
			"href": "school-addresses.html"
		},
		{
			"name": "Взрослые группы",
			"href": "adult-groups.html"
		},
		{
			"name": "Дети от 6-7 лет",
			"href": "childrens-2-6.html"
		},
		{
			"name": "Дети от 7-12 лет",
			"href": "childrens-7-12.html"
		},
		{
			"name": "Подростки от 7-13 лет",
			"href": "childrens-7-13.html"
		},
		{
			"name": "Индивидуальное обучение",
			"href": "individual-training.html"
		},
		{
			"name": "Обучение на выезд",
			"href": "exit-training.html"
		},
		{
			"name": "Международные экзамены",
			"href": "international-exams.html"
		},
		{
			"name": "Китайский язык",
			"href": "chinese-language.html"
		},
		{
			"name": "Немецкий язык",
			"href": "germany-language.html"
		},
		{
			"name": "Французский язык",
			"href": "france-language.html"
		},
		{
			"name": "Личный кабинет",
			"href": "dashboard.html"
		},
		{
			"name": "Образовательные партнеры",
			"href": "partners.html"
		},
		{
			"name": "Программы",
			"href": "programs.html"
		},
		{
			"name": "Мероприятия",
			"href": "events.html"
		},
		{
			"name": "Иностранные языки",
			"href": "foreign-languages.html"
		},
		{
			"name": "Новости",
			"href": "news.html"
		},
		{
			"name": "Статья",
			"href": "article.html"
		},
		{
			"name": "Преподаватели г. Красноярск",
			"href": "teachers-list.html"
		},
		{
			"name": "Преподаватели",
			"href": "teachers.html"
		},
		{
			"name": "Страница преподавателя",
			"href": "teacher.html"
		},
		{
			"name": "Летний отдых",
			"href": "summer-camps.html"
		},
		{
			"name": "Отзывы",
			"href": "reviews.html"
		},
		{
			"name": "ОГЭ, ЕГЭ",
			"href": "oge.html"
		},
		{
			"name": "Страница Лагеря: Летний отдых 2016",
			"href": "article-camp.html"
		},
		{
			"name": "Английский язык в контактном зоопарке",
			"href": "article-event.html"
		},
		{
			"name": "Вакансии",
			"href": "vacancies.html"
		},
		{
			"name": "UI",
			"href": "ui.html"
		}
	],
	"SOCIAL": [
		{
			"name": "youtube",
			"href": "youtube.com"
		},
		{
			"name": "instagram",
			"href": "instagram.com"
		},
		{
			"name": "vk",
			"href": "#vk"
		},
		{
			"name": "facebook",
			"href": "facebook.com"
		}
	],
	"TITLE": {
		"home": " Time Shcool | Главная страница",
		"addresses": " Time Shcool | Адреса Школ",
		"adult": " Time Shcool | Взрослые группы",
		"childrens_2_6": " Time Shcool | Дети от 6-7 лет",
		"childrens_7_12": " Time Shcool | Дети от 7-12 лет",
		"childrens_7_13": " Time Shcool | Подростки от 7-13 лет",
		"international_exams": " Time Shcool | Международные экзамены",
		"individual_training": " Time Shcool | Индивидуальное обучение",
		"exit_training": " Time Shcool | Обучение на выезд",
		"chinese_lang": " Time Shcool | Китайский язык",
		"germany_lang": " Time Shcool | Немецкий язык",
		"france_lang": " Time Shcool | Французский язык",
		"oge": " Time Shcool | ОГЭ, ЕГЭ",
		"dashboard": " Time Shcool | Личный кабинет",
		"partners": " Time Shcool | Образовательные партнеры",
		"foreign_languages": " Time Shcool | Иностранные языки",
		"programs": " Time Shcool | Программы",
		"events": " Time Shcool | Мероприятия",
		"news": " Time Shcool | Новости",
		"article": " Time Shcool | Статья",
		"camp": " Time Shcool | Летний отдых 2016",
		"event": " Time Shcool | Английский язык в контактном зоопарке",
		"teachers_list": " Time Shcool | Преподаватели г. Красноярск",
		"teachers": " Time Shcool | Преподаватели",
		"teacher": " Time Shcool | Преподаватель Мохаммед Сигрид Ла Фонда",
		"summer_camps": " Time Shcool | Летний отдых",
		"reviews": " Time Shcool | Отзывы",
		"vacancies": " Time Shcool | Вакансии",
		"ui": "Time Shcool | Страница UI"
	}
}